<?xml version="1.0" standalone="no"?>
<!DOCTYPE svg PUBLIC "-//W3C//DTD SVG 1.1//EN" "http://www.w3.org/Graphics/SVG/1.1/DTD/svg11.dtd" >
<svg xmlns="http://www.w3.org/2000/svg">
<metadata>Generated by IcoMoon</metadata>
<defs>
<font id="icomoon" horiz-adv-x="1024">
<font-face units-per-em="1024" ascent="960" descent="-64" />
<missing-glyph horiz-adv-x="1024" />
<glyph unicode="&#x20;" horiz-adv-x="512" d="" />
<glyph unicode="&#xe14a;" glyph-name="backspace" d="M810 272.667l-152 154 152 154-60 60-152-154-154 154-60-60 154-154-154-154 60-60 154 154 152-154zM938 810.667c46 0 86-40 86-86v-596c0-46-40-86-86-86h-640c-30 0-52 16-68 38l-230 346 230 346c16 22 38 38 68 38h640z" />
<glyph unicode="&#xe22b;" glyph-name="border_color" d="M0 84.667h1024v-170h-1024v170zM884 766.667l-84-84-160 160 84 84c16 16 44 16 60 0l100-100c16-16 16-44 0-60zM758 640.667l-428-428h-160v160l428 428z" />
<glyph unicode="&#xe5cd;" glyph-name="close" d="M810 664.667l-238-238 238-238-60-60-238 238-238-238-60 60 238 238-238 238 60 60 238-238 238 238z" />
</font></defs></svg>